Convergence monitoring
…
2.6.1 Beta
convergence

Now the beta-convergence is calculated for just two years:

betaRes <- beta_conv(wDFI$res,time_0=2007, time_t=2011, all_within=FALSE)
betaRes 
#> $res
#> $res$workTB
#> # A tibble: 27 × 3
#>    deltaIndic indic countries
#>         <dbl> <dbl> <chr>    
#>  1    0.0244   1.94 AT       
#>  2   -0.00553  2.02 BE       
#>  3    0.0256   1.61 BG       
#>  4    0.00403  1.95 CY       
#>  5   -0.00623  1.89 CZ       
#>  6    0.00138  1.97 DE       
#>  7   -0.00316  2.14 DK       
#>  8   -0.0171   1.91 EE       
#>  9   -0.0165   1.88 EL       
#> 10    0.00719  1.98 ES       
#> # ℹ 17 more rows
…
#> #   PT <dbl>, RO <dbl>, SE <dbl>, SI <dbl>, SK <dbl>, EU27 <dbl>
#> 
#> $res$diffe_abs_diff
#> # A tibble: 3 × 29
#>    time     AT      BE     BG      CY      CZ      DE     DK     EE    EL     ES
#>   <dbl>  <dbl>   <dbl>  <dbl>   <dbl>   <dbl>   <dbl>  <dbl>  <dbl> <dbl>  <dbl>
#> 1  2007 -0.980 -0.128  -0.385 -0.328   0.128  -0.350  -0.149 -0.629 0.266 -0.393
#> 2  2011  0.607 -0.195  -0.511  0.0850  0.192   0.0102 -0.136  0.475 0.451  0.182
#> 3  2016  0.301 -0.0335 -0.112  0.295  -0.0831  0.140  -0.143 -0.488 0.862 -0.423
#> # ℹ 18 more variables: FI <dbl>, FR <dbl>, HR <dbl>, HU <dbl>, IE <dbl>,
#> #   IT <dbl>, LT <dbl>, LU <dbl>, LV <dbl>, MT <dbl>, NL <dbl>, PL <dbl>,
#> #   PT <dbl>, RO <dbl>, SE <dbl>, SI <dbl>, SK <dbl>, EU27 <dbl>
#> 
#> $res$stats
#> # A tibble: 28 × 4
#>    MS    negaSum posiSum  posi
#>    <chr>   <dbl>   <dbl> <int>
#>  1 AT    -0.980    0.907     1
#>  2 BE    -0.356    0         2
#>  3 BG    -1.01     0         3
#>  4 CY    -0.328    0.380     4
#>  5 CZ    -0.0831   0.320     5
#>  6 DE    -0.350    0.150     6
#>  7 DK    -0.428    0         7
#>  8 EE    -1.12     0.475     8
#>  9 EL     0        1.58      9
#> 10 ES    -0.816    0.182    10
#> # ℹ 18 more rows
…
First note that the EU area is made by the following MS:

convergEU_glb()$Eurozone
#> NULL

while labels representing the 28 MS are:

convergEU_glb()$EU27_2020
#> $dates
#> [1] "01/02/2020" "00/00/0000"
#> 
#> $memberStates
#> # A tibble: 27 × 2
#>    MS          codeMS
#>    <chr>       <chr> 
#>  1 Belgium     BE    
#>  2 Denmark     DK    
#>  3 France      FR    
#>  4 Germany     DE    
#>  5 Greece      EL    
#>  6 Ireland     IE    
#>  7 Italy       IT    
#>  8 Luxembourg  LU    
#>  9 Netherlands NL    
#> 10 Portugal    PT    
#> # ℹ 17 more rows
…
